// Jest Snapshot v1, https://goo.gl/fbAQLP

exports[`should match the snapshot 1`] = `
<div>
  <header
    className="hero is-medium is-warning"
  >
    <div
      className="hero-body"
    >
      <div
        className="container"
      >
        <h1
          className="title has-text-weight-normal"
        >
          Flockademic is down for maintenance
        </h1>
        <PageMetadata
          title="Flockademic is down for maintenance"
          url="https://Flockademic.com"
        />
      </div>
    </div>
  </header>
  <section
    className="section"
  >
    <div
      className="container"
    >
      Unfortunately, Flockademic is currently down for planned maintenance. Not to worry though, it will be back up soon! Keep an eye on 
      <OutboundLink
        eventLabel="twitter"
        onClick={null}
        target={null}
        title="Flockademic on Twitter"
        to="https://twitter.com/Flockademic"
      >
        @Flockademic on Twitter
      </OutboundLink>
       for updates.
    </div>
  </section>
</div>
`;
